<?xml version="1.0" encoding="UTF-8"?>
<svg width="265px" height="252px" viewBox="0 0 265 252" version="1.1" xmlns="http://www.w3.org/2000/svg" xmlns:xlink="http://www.w3.org/1999/xlink">
    <!-- Generator: Sketch 53.1 (72631) - https://sketchapp.com -->
    <title>iPhone 8</title>
    <desc>Created with Sketch.</desc>
    <g id="Page-1" stroke="none" stroke-width="1" fill="none" fill-rule="evenodd" stroke-linecap="square">
        <g id="iPhone-8" stroke="#000000" stroke-width="22">
            <path d="M12,101 L12,240.5" id="left"></path>
            <path d="M247,240.5 L12,240.5" id="bottom"></path>
            <path d="M129.5,17 L16,92" id="left-roof"></path>
            <path d="M136,16 L249,92" id="right-roof"></path>
            <path d="M253,101 L253,240.5" id="right"></path>
        </g>
    </g>
</svg>